{
    "app-id": "org.gnome.Nautilus",
    "runtime": "org.gnome.Platform",
    "runtime-version": "master",
    "sdk": "org.gnome.Sdk",
    "command": "nautilus",
    "tags": ["devel", "development", "nightly"],
    "desktop-file-name-prefix": "(Development) ",
    "finish-args": [
        "--share=ipc", "--socket=x11",
        "--socket=wayland",
        "--talk-name=org.gnome.OnlineAccounts",
        "--talk-name=org.freedesktop.Tracker1",
        "--filesystem=home",
        "--talk-name=org.gtk.vfs", "--talk-name=org.gtk.vfs.*",
        "--filesystem=xdg-run/dconf", "--filesystem=~/.config/dconf:ro",
        "--talk-name=ca.desrt.dconf", "--env=DCONF_USER_CONFIG_DIR=.config/dconf"
    ],
    "cleanup": [ "/include", "/share/bash-completion" ],
    "modules": [
        {
            "name": "meson",
            "buildsystem": "simple",
             "build-commands": [
                "python3 setup.py install --prefix=/app"
            ],
            "sources": [
                {
                    "type": "archive",
                    "url": "https://github.com/mesonbuild/meson/releases/download/0.44.0/meson-0.44.0.tar.gz",
                    "sha256": "50f9b12b77272ef6ab064d26b7e06667f07fa9f931e6a20942bba2216ba4281b"
                }
            ]
        },
        {
            "name": "exiv2",
            "sources": [
                {
                    "type": "archive",
                    "url": "http://exiv2.org/builds/exiv2-0.26-trunk.tar.gz",
                    "sha256": "c75e3c4a0811bf700d92c82319373b7a825a2331c12b8b37d41eb58e4f18eafb"
                },
                {
                    "type": "shell",
                    "commands": [
                        "cp -f /usr/share/gnu-config/config.sub ./config/",
                        "cp -f /usr/share/gnu-config/config.guess ./config/"
                    ]
                }
            ]
        },
        {
            "name": "gexiv2",
            "config-opts": [ "--disable-introspection" ],
            "sources": [
                {
                    "type": "git",
                    "url": "https://git.gnome.org/browse/gexiv2"
                }
            ]
        },
        {
            "name": "tracker",
            "cleanup": [ "/bin", "/etc", "/libexec" ],
            "config-opts": [ "--disable-miner-apps", "--disable-static",
                             "--disable-tracker-extract", "--disable-tracker-needle",
                             "--disable-tracker-preferences", "--disable-artwork",
                             "--disable-tracker-writeback", "--disable-miner-user-guides",
                             "--with-bash-completion-dir=no" ],
            "sources": [
                {
                    "type": "git",
                    "url": "https://git.gnome.org/browse/tracker"
                }
            ]
        },
        {
            "name": "gnome-desktop",
            "config-opts": ["--disable-debug-tools", "--disable-udev"],
            "sources": [
                {
                    "type": "git",
                    "url": "https://git.gnome.org/browse/gnome-desktop"
                }
            ]
        },
        {
            "name": "gnome-autoar",
            "sources": [
                {
                    "type": "git",
                    "url": "https://git.gnome.org/browse/gnome-autoar"
                }
            ]
        },
        {
            "buildsystem": "meson",
            "builddir": true,
            "name": "nautilus",
            "config-opts": [
                "-Dselinux=false",
                "--libdir=/app/lib"
            ],
            "sources": [
                {
                    "type": "git",
                    "url": "https://gitlab.gnome.org/GNOME/nautilus.git"
                }
            ]
        }
    ]
}
